{
  "description": "Extra Data for Search response",
  "type": "object",
  "properties": {
    "current_page": {
      "type": "number"
    },
    "page_size": {
      "type": "number"
    },
    "total_items": {
      "type": "number"
    },
    "total_page": {
      "type": "number"
    }
  },
  "required": [
    "current_page",
    "page_size",
    "total_items",
    "total_page"
  ],
  "x-examples": {
    "example-1": {
      "current_page": 1,
      "page_size": 10,
      "total_items": 120,
      "total_page": 12
    }
  }
}